Data streams:
S_0=64KB/sec
S_2=584KB/sec
S_3=754KB/sec
S_4=390KB/sec

Application graph:
union (op_1): cost=1.0, selectivity=1.0
op_5: replicability=true, cost=1.1289013952978901, selectivity=0.6093633487149364
op_6: replicability=true, cost=1.0296009829056223, selectivity=0.37104235897349347
op_7: replicability=true, cost=1.1220586252821265, selectivity=0.5929407006771037
op_8: replicability=true, cost=1.4094045114276157, selectivity=1.282570827426278
op_9: replicability=true, cost=1.1853055630068208, selectivity=0.7447333512163696
op_10: replicability=true, cost=1.42814146647073, selectivity=1.3275395195297517
op_11: replicability=true, cost=1.3574923381979487, selectivity=1.157981611675077
op_12: replicability=true, cost=1.1436284434072204, selectivity=0.6447082641773285
Sink (op_13): replicability=false, cost=1.0, selectivity=1.0

Start identifying data min cuts for all data streams


	**Search Datamin-cut for Gmig_0
	Gmig_0= {0={5=64.0}, 5={6=38.99925431775593}, 6={7=14.47037532026736}, 7={8=8.580074481459997}, 8={9=11.00455322706524}, 9={10=8.195457803431212}, 10={11=10.879794114693427}, 11={12=12.598601523625712}, 12={13=8.12242251935858}}
	cmu=194.65815248461877	nbu=8.12242251935858
	contribution to CRU =0.06336528401192017	contribution to NRU =0.005601670703005917	contribution to RU =0.06896695471492609

	**Search Datamin-cut for Gmig_2
	Gmig_2= {2={5=584.0}, 5={6=355.8681956495228}}
	cmu=659.2784148539679	nbu=355.8681956495228
	contribution to CRU =0.21460885900194268	contribution to NRU =0.24542634182725712	contribution to RU =0.4600352008291998

	**Search Datamin-cut for Gmig_3
	Gmig_3= {3={5=754.0}}
	cmu=0.0	nbu=754.0
	contribution to CRU =0.0	contribution to NRU =0.52	contribution to RU =0.52

	**Search Datamin-cut for Gmig_4
	Gmig_4= {4={5=390.0}, 5={6=237.65170599882518}, 6={7=88.17884960787923}}
	cmu=684.9579742517656	nbu=88.17884960787923
	contribution to CRU =0.2229680905767466	contribution to NRU =0.06081299972957188	contribution to RU =0.2837810903063185

Initial mapping based on data min cuts
	Initial B=1206.1694677767607
	Initial CRU=0.5009422335906094
	Initial NRU=0.8318410122598348
	Initial RU=1.332783245850444
	Initial mapping Gmig_4= {4={5=390.0}, 5={6=237.65170599882518}, 6={7=88.17884960787923}}
	Initial mapping Gmig_3= {3={5=754.0}}
	Initial mapping Gmig_2= {2={5=584.0}, 5={6=355.8681956495228}}
	Initial mapping Gmig_0= {0={5=64.0}, 5={6=38.99925431775593}, 6={7=14.47037532026736}, 7={8=8.580074481459997}, 8={9=11.00455322706524}, 9={10=8.195457803431212}, 10={11=10.879794114693427}, 11={12=12.598601523625712}, 12={13=8.12242251935858}}

Search edge-cut move per data stream to improve current RU=1.332783245850444

	**Search best edge-cut move for Gmig_0

	1-hop edge-cut away: {11=[12]}
	cmu=180.25003343504687	nbu=12.598601523625712
	contribution to CRU =0.05867514109213765	contribution to NRU =0.008688690705948767	contribution to RU =0.06736383179808642
	current CRU=0.5009422335906094	new CRU=0.49625209067082693	deltaCRU=-0.004690142919782481
	current NRU=0.8318410122598348	new NRU=0.8349280322627777	deltaNRU=0.0030870200029429196
	current RU=1.332783245850444	new RU=1.3311801229336047	deltaRU=-0.0016031229168393946
	Best edge-cut move with deltaRU=-0.0016031229168393946	expected B=1210.6456467810278	current B=1206.1694677767607
	Accepted edge-cut move with deltaRU=-0.0016031229168393946

	2-hop edge-cut away: {10=[11]}
	cmu=165.48079628317942	nbu=10.879794114693427
	contribution to CRU =0.05386744670676413	contribution to NRU =0.007503306285995466	contribution to RU =0.0613707529927596
	current CRU=0.5009422335906094	new CRU=0.4914443962854534	deltaCRU=-0.00949783730515602
	current NRU=0.8318410122598348	new NRU=0.8337426478428244	deltaNRU=0.0019016355829896137
	current RU=1.332783245850444	new RU=1.3251870441282778	deltaRU=-0.00759620172216624
	Best edge-cut move with deltaRU=-0.00759620172216624	expected B=1208.9268393720954	current B=1206.1694677767607
	Accepted edge-cut move with deltaRU=-0.00759620172216624

	3-hop edge-cut away: {9=[10]}
	cmu=153.77652315738817	nbu=8.195457803431212
	contribution to CRU =0.050057461965295626	contribution to NRU =0.005652039864435319	contribution to RU =0.055709501829730945
	current CRU=0.5009422335906094	new CRU=0.4876344115439849	deltaCRU=-0.013307822046624507
	current NRU=0.8318410122598348	new NRU=0.8318913814212642	deltaNRU=5.036916142941994E-5
	current RU=1.332783245850444	new RU=1.319525792965249	deltaRU=-0.013257452885194976
	Best edge-cut move with deltaRU=-0.013257452885194976	expected B=1206.2425030608333	current B=1206.1694677767607
	Accepted edge-cut move with deltaRU=-0.013257452885194976

	4-hop edge-cut away: {8=[9]}
	cmu=140.73276499894308	nbu=11.00455322706524
	contribution to CRU =0.045811446939760116	contribution to NRU =0.007589347053148442	contribution to RU =0.053400793992908556
	current CRU=0.5009422335906094	new CRU=0.4833883965184494	deltaCRU=-0.017553837072160017
	current NRU=0.8318410122598348	new NRU=0.8338286886099773	deltaNRU=0.00198767635014252
	current RU=1.332783245850444	new RU=1.3172170851284266	deltaRU=-0.015566160722017441
	Best edge-cut move with deltaRU=-0.015566160722017441	expected B=1209.0515984844674	current B=1206.1694677767607
	Accepted edge-cut move with deltaRU=-0.015566160722017441

	5-hop edge-cut away: {7=[8]}
	cmu=128.6399693163884	nbu=8.580074481459997
	contribution to CRU =0.041874990011845185	contribution to NRU =0.00591729274583448	contribution to RU =0.04779228275767967
	current CRU=0.5009422335906094	new CRU=0.47945193959053445	deltaCRU=-0.02149029400007496
	current NRU=0.8318410122598348	new NRU=0.8321566343026634	deltaNRU=3.156220428286449E-4
	current RU=1.332783245850444	new RU=1.311608573893198	deltaRU=-0.021174671957246094
	Best edge-cut move with deltaRU=-0.021174671957246094	expected B=1206.6271197388621	current B=1206.1694677767607
	Accepted edge-cut move with deltaRU=-0.021174671957246094

	6-hop edge-cut away: {6=[7]}
	cmu=112.40335987721281	nbu=14.47037532026736
	contribution to CRU =0.03658963537669688	contribution to NRU =0.009979569186391283	contribution to RU =0.04656920456308816
	current CRU=0.5009422335906094	new CRU=0.4741665849553861	deltaCRU=-0.026775648635223304
	current NRU=0.8318410122598348	new NRU=0.8362189107432202	deltaNRU=0.004377898483385434
	current RU=1.332783245850444	new RU=1.3103854956986063	deltaRU=-0.02239775015183776
	Best edge-cut move with deltaRU=-0.02239775015183776	expected B=1212.5174205776693	current B=1206.1694677767607
	Accepted edge-cut move with deltaRU=-0.02239775015183776

	7-hop edge-cut away: {5=[6]}
	cmu=72.24968929906497	nbu=38.99925431775593
	contribution to CRU =0.023518779068706044	contribution to NRU =0.02689603746052133	contribution to RU =0.05041481652922737
	current CRU=0.5009422335906094	new CRU=0.4610957286473953	deltaCRU=-0.03984650494321412
	current NRU=0.8318410122598348	new NRU=0.8531353790173503	deltaNRU=0.021294366757515504
	current RU=1.332783245850444	new RU=1.3142311076647455	deltaRU=-0.018552138185698563

	8-hop edge-cut away: {0=[5]}
	Decide to not replicate the Gmig_0
	cmu=0.0	nbu=64.0
	contribution to CRU =0.0	contribution to NRU =0.044137931034482755	contribution to RU =0.044137931034482755
	current CRU=0.5009422335906094	new CRU=0.43757694957868926	deltaCRU=-0.06336528401192015
	current NRU=0.8318410122598348	new NRU=0.8703772725913116	deltaNRU=0.038536260331476835
	current RU=1.332783245850444	new RU=1.307954222170001	deltaRU=-0.024829023680443152
	Best edge-cut move with deltaRU=-0.024829023680443152	expected B=1262.047045257402	current B=1206.1694677767607
	Accepted edge-cut move with deltaRU=-0.024829023680443152
	deltaRU_set={0=-0.024829023680443152}

	**Search best edge-cut move for Gmig_2

	1-hop edge-cut away: {2=[5]}
	Decide to not replicate the Gmig_2
	cmu=0.0	nbu=584.0
	contribution to CRU =0.0	contribution to NRU =0.4027586206896552	contribution to RU =0.4027586206896552
	current CRU=0.5009422335906094	new CRU=0.2229680905767466	deltaCRU=-0.2779741430138628
	current NRU=0.8318410122598348	new NRU=1.0277095514537098	deltaNRU=0.19586853919387504
	current RU=1.332783245850444	new RU=1.2506776420304564	deltaRU=-0.08210560381998766
	Best edge-cut move with deltaRU=-0.08210560381998766	expected B=1434.301272127238	current B=1206.1694677767607
	Accepted edge-cut move with deltaRU=-0.08210560381998766
	deltaRU_set={0=-0.024829023680443152, 2=-0.08210560381998766}

	**Search best edge-cut move for Gmig_4

	1-hop edge-cut away: {5=[6]}
	cmu=440.27154416617714	nbu=237.65170599882518
	contribution to CRU =0.14331755994992745	contribution to NRU =0.16389772827505183	contribution to RU =0.3072152882249793
	current CRU=0.5009422335906094	new CRU=0.14331755994992745	deltaCRU=-0.35762467364068196
	current NRU=0.8318410122598348	new NRU=1.1307942799991897	deltaNRU=0.29895326773935493
	current RU=1.332783245850444	new RU=1.2741118399491171	deltaRU=-0.05867140590132691
	Best edge-cut move with deltaRU=-0.05867140590132691	expected B=1355.6423241677066	current B=1206.1694677767607
	Accepted edge-cut move with deltaRU=-0.05867140590132691

	2-hop edge-cut away: {4=[5]}
	Decide to not replicate the Gmig_4
	cmu=0.0	nbu=390.0
	contribution to CRU =0.0	contribution to NRU =0.2689655172413793	contribution to RU =0.2689655172413793
	current CRU=0.5009422335906094	new CRU=0.0	deltaCRU=-0.5009422335906094
	current NRU=0.8318410122598348	new NRU=1.235862068965517	deltaNRU=0.40402105670568234
	current RU=1.332783245850444	new RU=1.235862068965517	deltaRU=-0.09692117688492696
	Best edge-cut move with deltaRU=-0.09692117688492696	expected B=1507.9906181688814	current B=1206.1694677767607
	deltaRU_set={0=-0.024829023680443152, 2=-0.08210560381998766, 4=-0.05867140590132691}

Start updating data streams based on the highest deltaRU from deltaRU_set={0=-0.024829023680443152, 2=-0.08210560381998766, 4=-0.05867140590132691}
	Select S_0 with the best deltaRU=-0.024829023680443152
	Update Gmig_0	to be delimited by edge-cut hop {0=[5]}	 with the deltaRU=-0.024829023680443152
	improved B=1262.047045257402	improved CRU=0.43757694957868926	improved NRU=0.8703772725913116	improved RU=1.307954222170001

Search edge-cut move per data stream to improve current RU=1.307954222170001

	**Search best edge-cut move for Gmig_2

	1-hop edge-cut away: {2=[5]}
	Decide to not replicate the Gmig_2
	cmu=0.0	nbu=584.0
	contribution to CRU =0.0	contribution to NRU =0.4027586206896552	contribution to RU =0.4027586206896552
	current CRU=0.43757694957868926	new CRU=0.2229680905767466	deltaCRU=-0.21460885900194265
	current NRU=0.8703772725913116	new NRU=1.0277095514537098	deltaNRU=0.1573322788623982
	current RU=1.307954222170001	new RU=1.2506776420304564	deltaRU=-0.05727658013954451
	Best edge-cut move with deltaRU=-0.05727658013954451	expected B=1490.1788496078793	current B=1262.047045257402
	deltaRU_set={}

	**Search best edge-cut move for Gmig_4

	1-hop edge-cut away: {5=[6]}
	cmu=440.27154416617714	nbu=237.65170599882518
	contribution to CRU =0.14331755994992745	contribution to NRU =0.16389772827505183	contribution to RU =0.3072152882249793
	current CRU=0.43757694957868926	new CRU=0.3579264189518701	deltaCRU=-0.07965053062681915
	current NRU=0.8703772725913116	new NRU=0.9734620011367916	deltaNRU=0.10308472854548001
	current RU=1.307954222170001	new RU=1.3313884200886617	deltaRU=0.02343419791866075

	2-hop edge-cut away: {4=[5]}
	Decide to not replicate the Gmig_4
	cmu=0.0	nbu=390.0
	contribution to CRU =0.0	contribution to NRU =0.2689655172413793	contribution to RU =0.2689655172413793
	current CRU=0.43757694957868926	new CRU=0.21460885900194265	deltaCRU=-0.2229680905767466
	current NRU=0.8703772725913116	new NRU=1.078529790103119	deltaNRU=0.2081525175118074
	current RU=1.307954222170001	new RU=1.2931386491050616	deltaRU=-0.014815573064939302
	Best edge-cut move with deltaRU=-0.014815573064939302	expected B=1563.8681956495227	current B=1262.047045257402
	deltaRU_set={}

Stop improvement, no more metrics deltaRU in the set {}
	Final solution B=1262.047045257402	CRU=0.43757694957868926	NRU=0.8703772725913116	RU=1.307954222170001
	
