{
	"1448":[{"experiment_1":[177,201,401,385,254,30]},{"experiment_2":[386,79,246,13,322,402]},{"experiment_3":[178,365,97,194,311,303]},{"experiment_4":[320,190,99,36,304,499]},{"experiment_5":[457,448,30,249,80,184]},{"experiment_6":[376,230,86,387,149,220]},{"experiment_7":[70,161,249,446,219,303]},{"experiment_8":[192,263,47,51,261,634]},{"experiment_9":[281,339,310,130,308,80]},{"experiment_10":[363,453,218,10,205,199]},{"experiment_11":[354,152,166,129,230,417]},{"experiment_12":[266,316,411,79,304,72]},{"experiment_13":[271,186,143,201,431,216]},{"experiment_14":[338,178,194,417,148,173]},{"experiment_15":[192,55,230,19,297,655]}],
	"1832":[{"experiment_1":[111,558,418,320,339,86]},{"experiment_2":[62,418,113,268,560,411]},{"experiment_3":[248,479,399,61,511,134]},{"experiment_4":[239,26,172,87,370,938]},{"experiment_5":[278,94,472,548,75,365]},{"experiment_6":[14,503,503,193,192,427]},{"experiment_7":[284,424,169,60,555,340]},{"experiment_8":[169,352,577,401,112,221]},{"experiment_9":[150,178,578,448,240,238]},{"experiment_10":[320,159,164,177,345,667]},{"experiment_11":[28,455,496,215,319,319]},{"experiment_12":[149,440,189,224,374,456]},{"experiment_13":[422,129,398,246,480,157]},{"experiment_14":[260,610,32,33,476,421]},{"experiment_15":[334,281,383,191,293,350]}],
	"2688":[{"experiment_1":[389,131,601,629,820,118]},{"experiment_2":[109,495,723,606,317,438]},{"experiment_3":[243,781,119,411,495,639]},{"experiment_4":[579,482,255,82,334,956]},{"experiment_5":[142,455,611,446,531,503]},{"experiment_6":[517,837,407,94,200,633]},{"experiment_7":[35,483,881,248,294,747]},{"experiment_8":[818,56,664,270,610,270]},{"experiment_9":[348,600,597,342,417,384]},{"experiment_10":[41,38,868,570,554,617]},{"experiment_11":[251,292,406,106,645,988]},{"experiment_12":[591,554,565,655,65,258]},{"experiment_13":[617,805,317,364,197,388]},{"experiment_14":[653,376,153,508,218,780]},{"experiment_15":[85,422,515,828,402,436]}],
	"768":[{"experiment_1":[152,254,58,44,99,161]},{"experiment_2":[107,128,104,201,192,36]},{"experiment_3":[22,26,240,127,156,197]},{"experiment_4":[127,245,99,50,41,206]},{"experiment_5":[98,69,242,94,143,122]},{"experiment_6":[90,246,107,152,85,88]},{"experiment_7":[169,256,43,220,25,55]},{"experiment_8":[25,164,145,27,188,219]},{"experiment_9":[224,170,90,23,44,217]},{"experiment_10":[65,230,25,141,209,98]},{"experiment_11":[254,182,198,29,33,72]},{"experiment_12":[89,171,46,186,243,33]},{"experiment_13":[169,148,100,108,106,137]},{"experiment_14":[245,123,69,24,21,286]},{"experiment_15":[191,71,11,160,163,172]}],
	"3000":[{"experiment_1":[355,696,225,341,882,501]},{"experiment_2":[592,920,407,148,120,813]},{"experiment_3":[34,789,780,969,316,112]},{"experiment_4":[102,133,955,428,663,719]},{"experiment_5":[230,719,653,724,110,564]},{"experiment_6":[774,16,266,541,445,958]},{"experiment_7":[906,51,691,558,495,299]},{"experiment_8":[62,792,614,755,403,374]},{"experiment_9":[116,90,816,495,577,906]},{"experiment_10":[285,522,362,951,99,781]},{"experiment_11":[443,447,464,419,910,317]},{"experiment_12":[79,854,398,460,972,237]},{"experiment_13":[439,543,637,828,456,97]},{"experiment_14":[709,821,510,395,375,190]},{"experiment_15":[381,538,201,787,943,150]}],
	"3384":[{"experiment_1":[662,934,390,13,478,907]},{"experiment_2":[391,823,268,479,794,629]},{"experiment_3":[994,393,222,529,295,951]},{"experiment_4":[789,467,931,46,795,356]},{"experiment_5":[189,809,269,973,563,581]},{"experiment_6":[223,862,242,683,924,450]},{"experiment_7":[914,659,286,126,834,565]},{"experiment_8":[464,318,377,956,984,285]},{"experiment_9":[459,378,641,331,703,872]},{"experiment_10":[629,799,733,388,588,247]},{"experiment_11":[779,695,396,440,648,426]},{"experiment_12":[449,548,349,484,686,868]},{"experiment_13":[735,886,317,151,718,577]},{"experiment_14":[940,397,273,844,441,489]},{"experiment_15":[512,397,768,366,605,736]}],
	"2250":[{"experiment_1":[483,133,651,96,209,678]},{"experiment_2":[621,268,275,192,568,326]},{"experiment_3":[541,230,234,608,568,69]},{"experiment_4":[105,331,421,556,723,114]},{"experiment_5":[38,686,55,298,545,628]},{"experiment_6":[46,748,299,41,563,553]},{"experiment_7":[358,533,492,695,31,141]},{"experiment_8":[246,716,719,35,244,290]},{"experiment_9":[720,32,24,34,526,914]},{"experiment_10":[535,267,414,411,334,289]},{"experiment_11":[252,237,239,459,422,641]},{"experiment_12":[505,334,265,602,54,490]},{"experiment_13":[307,356,156,400,429,602]},{"experiment_14":[589,238,77,429,377,540]},{"experiment_15":[486,411,429,35,654,235]}],
	"1050":[{"experiment_1":[41,218,349,78,87,277]},{"experiment_2":[111,265,115,135,157,267]},{"experiment_3":[204,25,192,110,340,179]},{"experiment_4":[106,240,172,248,117,167]},{"experiment_5":[177,208,221,218,120,106]},{"experiment_6":[50,90,237,13,135,525]},{"experiment_7":[136,227,180,51,143,313]},{"experiment_8":[108,221,53,131,289,248]},{"experiment_9":[49,72,137,203,284,305]},{"experiment_10":[137,53,158,348,198,156]},{"experiment_11":[92,163,262,132,267,134]},{"experiment_12":[171,341,73,204,46,215]},{"experiment_13":[20,65,192,304,104,365]},{"experiment_14":[30,278,161,168,50,363]},{"experiment_15":[151,12,232,260,323,72]}],
	"3150":[{"experiment_1":[442,159,674,945,103,827]},{"experiment_2":[786,546,267,342,305,904]},{"experiment_3":[488,364,471,49,906,872]},{"experiment_4":[285,174,735,789,303,864]},{"experiment_5":[518,829,455,338,946,64]},{"experiment_6":[677,290,329,646,866,342]},{"experiment_7":[784,557,812,771,78,148]},{"experiment_8":[882,562,319,769,264,354]},{"experiment_9":[107,968,823,58,463,731]},{"experiment_10":[272,343,476,165,1000,894]},{"experiment_11":[937,478,223,474,525,513]},{"experiment_12":[471,173,718,915,428,445]},{"experiment_13":[454,831,541,434,706,184]},{"experiment_14":[795,234,886,605,620,10]},{"experiment_15":[847,55,971,63,510,704]}]
}