{"nodes":
	[
	
		{"latitude":48.8534,"longitude":2.3488, "stdDev":2500000.0,"mean":5000000.0,"sensorType":"Antenna_1","name":"Antenna_1","type":"SENSOR","distribution":2,"value":5000.0},
		{"latitude":49.4431,"longitude":1.0993,"stdDev":2500000.0,"mean":5000000.0,"sensorType":"Antenna_2","name":"Antenna_2","type":"SENSOR","distribution":2,"value":5000.0},
		{"latitude":47.9167,"longitude":1.9,"stdDev":2500000.0,"mean":5000000.0,"sensorType":"Antenna_3","name":"Antenna_3","type":"SENSOR","distribution":2,"value":5000.0},
		{"latitude":47.9167,"longitude":1.9,"stdDev":2500000.0,"mean":5000000.0,"sensorType":"Antenna_4","name":"Antenna_4","type":"SENSOR","distribution":2,"value":5000.0},
		{"latitude":48.8534,"longitude":2.3488, "stdDev":2500000.0,"mean":5000000.0,"sensorType":"Antenna_5","name":"Antenna_5","type":"SENSOR","distribution":2,"value":5000.0},
		{"latitude":49.4431,"longitude":1.0993,"stdDev":2500000.0,"mean":5000000.0,"sensorType":"Antenna_6","name":"Antenna_6","type":"SENSOR","distribution":2,"value":5000.0},
		{"latitude":47.9167,"longitude":1.9,"stdDev":2500000.0,"mean":5000000.0,"sensorType":"Antenna_7","name":"Antenna_7","type":"SENSOR","distribution":2,"value":5000.0},
		{"latitude":47.9167,"longitude":1.9,"stdDev":2500000.0,"mean":5000000.0,"sensorType":"Antenna_8","name":"Antenna_8","type":"SENSOR","distribution":2,"value":5000.0},
		{"latitude":48.8534,"longitude":2.3488, "stdDev":2500000.0,"mean":5000000.0,"sensorType":"Antenna_9","name":"Antenna_9","type":"SENSOR","distribution":2,"value":5000.0},
		{"latitude":49.4431,"longitude":1.0993,"stdDev":2500000.0,"mean":5000000.0,"sensorType":"Antenna_10","name":"Antenna_10","type":"SENSOR","distribution":2,"value":5000.0},
		{"latitude":47.9167,"longitude":1.9,"stdDev":2500000.0,"mean":5000000.0,"sensorType":"Antenna_11","name":"Antenna_11","type":"SENSOR","distribution":2,"value":5000.0},
		{"latitude":47.9167,"longitude":1.9,"stdDev":2500000.0,"mean":5000000.0,"sensorType":"Antenna_12","name":"Antenna_12","type":"SENSOR","distribution":2,"value":5000.0},
		{"latitude":47.9167,"longitude":1.9,"stdDev":2500000.0,"mean":5000000.0,"sensorType":"Antenna_13","name":"Antenna_13","type":"SENSOR","distribution":2,"value":5000.0},
		{"latitude":47.9167,"longitude":1.9,"stdDev":2500000.0,"mean":5000000.0,"sensorType":"Antenna_14","name":"Antenna_14","type":"SENSOR","distribution":2,"value":5000.0},
		{"latitude":48.8534,"longitude":2.3488, "stdDev":2500000.0,"mean":5000000.0,"sensorType":"Antenna_15","name":"Antenna_15","type":"SENSOR","distribution":2,"value":5000.0},
		{"latitude":49.4431,"longitude":1.0993,"stdDev":2500000.0,"mean":5000000.0,"sensorType":"Antenna_16","name":"Antenna_16","type":"SENSOR","distribution":2,"value":5000.0},
		{"latitude":47.9167,"longitude":1.9,"stdDev":2500000.0,"mean":5000000.0,"sensorType":"Antenna_17","name":"Antenna_17","type":"SENSOR","distribution":2,"value":5000.0},
		{"latitude":47.9167,"longitude":1.9,"stdDev":2500000.0,"mean":5000000.0,"sensorType":"Antenna_18","name":"Antenna_18","type":"SENSOR","distribution":2,"value":5000.0},
		
		
		
		{"level":1,"upBw":4096,"ratePerMips":10.0,"name":"Fog_1","type":"FOG_DEVICE","mips":2048000,"ram":1280,"downBw":4096},
		{"level":1,"upBw":4096,"ratePerMips":10.0,"name":"Fog_2","type":"FOG_DEVICE","mips":2048000,"ram":1280,"downBw":4096},
		{"level":1,"upBw":4096,"ratePerMips":10.0,"name":"Fog_3","type":"FOG_DEVICE","mips":2048000,"ram":1280,"downBw":4096},
		{"level":1,"upBw":4096,"ratePerMips":10.0,"name":"Fog_4","type":"FOG_DEVICE","mips":2048000,"ram":1280,"downBw":4096},
		{"level":1,"upBw":4096,"ratePerMips":10.0,"name":"Fog_5","type":"FOG_DEVICE","mips":2048000,"ram":1280,"downBw":4096},
		{"level":1,"upBw":4096,"ratePerMips":10.0,"name":"Fog_6","type":"FOG_DEVICE","mips":2048000,"ram":1280,"downBw":4096},
		{"level":1,"upBw":4096,"ratePerMips":10.0,"name":"Fog_7","type":"FOG_DEVICE","mips":2048000,"ram":1280,"downBw":4096},
		{"level":1,"upBw":4096,"ratePerMips":10.0,"name":"Fog_8","type":"FOG_DEVICE","mips":2048000,"ram":1280,"downBw":4096},
		{"level":1,"upBw":4096,"ratePerMips":10.0,"name":"Fog_9","type":"FOG_DEVICE","mips":2048000,"ram":1280,"downBw":4096},
		{"level":1,"upBw":4096,"ratePerMips":10.0,"name":"Fog_10","type":"FOG_DEVICE","mips":2048000,"ram":1280,"downBw":4096},
		{"level":1,"upBw":4096,"ratePerMips":10.0,"name":"Fog_11","type":"FOG_DEVICE","mips":2048000,"ram":1280,"downBw":4096},
		{"level":1,"upBw":4096,"ratePerMips":10.0,"name":"Fog_12","type":"FOG_DEVICE","mips":2048000,"ram":1280,"downBw":4096},
		{"level":1,"upBw":4096,"ratePerMips":10.0,"name":"Fog_13","type":"FOG_DEVICE","mips":2048000,"ram":1280,"downBw":4096},
		{"level":1,"upBw":4096,"ratePerMips":10.0,"name":"Fog_14","type":"FOG_DEVICE","mips":2048000,"ram":1280,"downBw":4096},
		{"level":1,"upBw":4096,"ratePerMips":10.0,"name":"Fog_15","type":"FOG_DEVICE","mips":2048000,"ram":1280,"downBw":4096},
		{"level":1,"upBw":4096,"ratePerMips":10.0,"name":"Fog_16","type":"FOG_DEVICE","mips":2048000,"ram":1280,"downBw":4096},
		{"level":1,"upBw":4096,"ratePerMips":10.0,"name":"Fog_17","type":"FOG_DEVICE","mips":2048000,"ram":1280,"downBw":4096},
		{"level":1,"upBw":4096,"ratePerMips":10.0,"name":"Fog_18","type":"FOG_DEVICE","mips":2048000,"ram":1280,"downBw":4096},
		
		{"level":0,"upBw":8192000,"ratePerMips":10.0,"name":"cloud","type":"FOG_DEVICE","mips":40980000,"ram":8192000,"downBw":8192000}
	],
	
"links":
   
   	[
		{"latency":10.0,"destination":"Fog_1","source":"Antenna_1"},
		{"latency":100.0,"destination":"cloud","source":"Fog_1"},
		
		{"latency":10.0,"destination":"Fog_2","source":"Antenna_2"},
		{"latency":100.0,"destination":"cloud","source":"Fog_2"},
		
		{"latency":10.0,"destination":"Fog_3","source":"Antenna_3"},
		{"latency":100.0,"destination":"cloud","source":"Fog_3"},
		
		{"latency":10.0,"destination":"Fog_4","source":"Antenna_4"},
		{"latency":100.0,"destination":"cloud","source":"Fog_4"},		
		
		{"latency":10.0,"destination":"Fog_5","source":"Antenna_5"},
		{"latency":100.0,"destination":"cloud","source":"Fog_5"},
		
		{"latency":10.0,"destination":"Fog_6","source":"Antenna_6"},
		{"latency":100.0,"destination":"cloud","source":"Fog_6"},
		
		{"latency":10.0,"destination":"Fog_7","source":"Antenna_7"},
		{"latency":100.0,"destination":"cloud","source":"Fog_7"},
		
		{"latency":10.0,"destination":"Fog_8","source":"Antenna_8"},
		{"latency":100.0,"destination":"cloud","source":"Fog_8"},
		
		{"latency":10.0,"destination":"Fog_9","source":"Antenna_9"},
		{"latency":100.0,"destination":"cloud","source":"Fog_9"},
		
		{"latency":10.0,"destination":"Fog_10","source":"Antenna_10"},
		{"latency":100.0,"destination":"cloud","source":"Fog_10"},
		
		{"latency":10.0,"destination":"Fog_11","source":"Antenna_11"},
		{"latency":100.0,"destination":"cloud","source":"Fog_11"},
		
		{"latency":10.0,"destination":"Fog_12","source":"Antenna_12"},
		{"latency":100.0,"destination":"cloud","source":"Fog_12"},
		
		{"latency":10.0,"destination":"Fog_13","source":"Antenna_13"},
		{"latency":100.0,"destination":"cloud","source":"Fog_13"},
		
		{"latency":10.0,"destination":"Fog_14","source":"Antenna_14"},
		{"latency":100.0,"destination":"cloud","source":"Fog_14"},		
		
		{"latency":10.0,"destination":"Fog_15","source":"Antenna_15"},
		{"latency":100.0,"destination":"cloud","source":"Fog_15"},
		
		{"latency":10.0,"destination":"Fog_16","source":"Antenna_16"},
		{"latency":100.0,"destination":"cloud","source":"Fog_16"},
		
		{"latency":10.0,"destination":"Fog_17","source":"Antenna_17"},
		{"latency":100.0,"destination":"cloud","source":"Fog_17"},
		
		{"latency":10.0,"destination":"Fog_18","source":"Antenna_18"},
		{"latency":100.0,"destination":"cloud","source":"Fog_18"}
	]
}
